-----------------------------------------------------------
Routing Table for Node #8 at Sat Apr 22 10:18:26 IST 2017
-----------------------------------------------------------

Dest	Cost	Path

 0 		 2147483647		 8
 1 		 7		 8 - 1
 2 		 2		 8 - 2
 3 		 2147483647		 8
 4 		 2147483647		 8
 5 		 2147483647		 8
 6 		 6		 8 - 6
 7 		 7		 8 - 7

-----------------------------------------------------------
Routing Table for Node #8 at Sat Apr 22 10:18:29 IST 2017
-----------------------------------------------------------

Dest	Cost	Path

 0 		 10		 8 - 6 - 0
 1 		 7		 8 - 1
 2 		 2		 8 - 2
 3 		 9		 8 - 2 - 3
 4 		 12		 8 - 1 - 4
 5 		 6		 8 - 2 - 5
 6 		 6		 8 - 6
 7 		 7		 8 - 7

-----------------------------------------------------------
Routing Table for Node #8 at Sat Apr 22 10:18:32 IST 2017
-----------------------------------------------------------

Dest	Cost	Path

 0 		 10		 8 - 6 - 0
 1 		 7		 8 - 1
 2 		 2		 8 - 2
 3 		 9		 8 - 2 - 3
 4 		 12		 8 - 1 - 4
 5 		 6		 8 - 2 - 5
 6 		 6		 8 - 6
 7 		 7		 8 - 7

-----------------------------------------------------------
Routing Table for Node #8 at Sat Apr 22 10:18:35 IST 2017
-----------------------------------------------------------

Dest	Cost	Path

 0 		 10		 8 - 6 - 0
 1 		 7		 8 - 1
 2 		 2		 8 - 2
 3 		 9		 8 - 2 - 3
 4 		 12		 8 - 1 - 4
 5 		 6		 8 - 2 - 5
 6 		 6		 8 - 6
 7 		 7		 8 - 7

-----------------------------------------------------------
Routing Table for Node #8 at Sat Apr 22 10:18:38 IST 2017
-----------------------------------------------------------

Dest	Cost	Path

 0 		 10		 8 - 6 - 0
 1 		 7		 8 - 1
 2 		 2		 8 - 2
 3 		 9		 8 - 2 - 3
 4 		 12		 8 - 1 - 4
 5 		 6		 8 - 2 - 5
 6 		 6		 8 - 6
 7 		 7		 8 - 7

